My Data Analysis Portfolio - Machine Learning
…
dtree_wf <- workflow() %>%
  add_model(tune_spec_dtree) %>%
  add_recipe(bt_rec_train)

Create grid for model tuning

tree_grid_dtree <-
  grid_regular(
    cost_complexity(), 
    tree_depth(), 
    levels = 5)

tree_grid_dtree

# A tibble: 25 × 2
   cost_complexity tree_depth
             <dbl>      <int>
 1    0.0000000001          1
 2    0.0000000178          1
 3    0.00000316            1
 4    0.000562              1
 5    0.1                   1
 6    0.0000000001          4
 7    0.0000000178          4
 8    0.00000316            4
 9    0.000562              4
10    0.1                   4
# … with 15 more rows
…
dtree_resample %>%
  collect_metrics()

# A tibble: 50 × 8
   cost_complexity tree_depth .metric .estimator     mean     n  std_err .config
             <dbl>      <int> <chr>   <chr>         <dbl> <int>    <dbl> <chr>  
 1    0.0000000001          1 rmse    standard     1.19      25  0.0170  Prepro…
 2    0.0000000001          1 rsq     standard     0.0383    25  0.00415 Prepro…
 3    0.0000000178          1 rmse    standard     1.19      25  0.0170  Prepro…
 4    0.0000000178          1 rsq     standard     0.0383    25  0.00415 Prepro…
 5    0.00000316            1 rmse    standard     1.19      25  0.0170  Prepro…
 6    0.00000316            1 rsq     standard     0.0383    25  0.00415 Prepro…
 7    0.000562              1 rmse    standard     1.19      25  0.0170  Prepro…
 8    0.000562              1 rsq     standard     0.0383    25  0.00415 Prepro…
 9    0.1                   1 rmse    standard     1.21      25  0.0169  Prepro…
10    0.1                   1 rsq     standard   NaN          0 NA       Prepro…
# … with 40 more rows
…
dtree_final_fit <- dtree_final_wf %>%
  fit(train) 

Evaluate final fit

Calculating residuals

dtree_residuals <- dtree_final_fit %>%
  augment(train) %>% #use augment() to make predictions
  select(c(.pred, BodyTemp)) %>%
  mutate(.resid = BodyTemp - .pred) #calculate residuals

dtree_residuals

# A tibble: 508 × 3
   .pred BodyTemp .resid
   <dbl>    <dbl>  <dbl>
 1  99.2     97.8 -1.44 
 2  99.2     98.1 -1.14 
 3  98.7     98.1 -0.591
 4  98.7     98.2 -0.491
 5  98.7     97.8 -0.891
 6  98.7     98.2 -0.491
 7  98.7     98.1 -0.591
 8  99.2     98   -1.24 
 9  99.2     97.7 -1.54 
10  99.2     98.2 -1.04 
# … with 498 more rows
…
lasso_grid <- tibble(penalty = 10^seq(-3, 0, length.out = 30))

Use cross-validation for tuning

lasso_resample <- lasso_wf %>%
  tune_grid(resamples = fold_bt_train,
            grid = lasso_grid,
            control = control_grid(verbose = FALSE, save_pred = TRUE),
            metrics = metric_set(rmse))

lasso_resample %>%
  collect_metrics()

# A tibble: 30 × 7
   penalty .metric .estimator  mean     n std_err .config              
     <dbl> <chr>   <chr>      <dbl> <int>   <dbl> <chr>                
 1 0.001   rmse    standard    1.17    25  0.0170 Preprocessor1_Model01
 2 0.00127 rmse    standard    1.17    25  0.0170 Preprocessor1_Model02
 3 0.00161 rmse    standard    1.17    25  0.0170 Preprocessor1_Model03
 4 0.00204 rmse    standard    1.17    25  0.0170 Preprocessor1_Model04
 5 0.00259 rmse    standard    1.17    25  0.0170 Preprocessor1_Model05
 6 0.00329 rmse    standard    1.17    25  0.0169 Preprocessor1_Model06
 7 0.00418 rmse    standard    1.17    25  0.0169 Preprocessor1_Model07
 8 0.00530 rmse    standard    1.17    25  0.0168 Preprocessor1_Model08
 9 0.00672 rmse    standard    1.16    25  0.0168 Preprocessor1_Model09
10 0.00853 rmse    standard    1.16    25  0.0167 Preprocessor1_Model10
# … with 20 more rows
…
lasso_final_fit <- lasso_final_wf %>%
  fit(train) #fit updated workflow to training data

Evaluate final fit

Calculating residuals

lasso_residuals <- lasso_final_fit %>%
  augment(train) %>% #use augment() to make predictions from train data
  select(c(.pred, BodyTemp)) %>%
  mutate(.resid = BodyTemp - .pred) #calculate residuals and make new row.

lasso_residuals

# A tibble: 508 × 3
   .pred BodyTemp .resid
   <dbl>    <dbl>  <dbl>
 1  98.7     97.8 -0.913
 2  98.8     98.1 -0.705
 3  98.5     98.1 -0.391
 4  98.8     98.2 -0.637
 5  98.7     97.8 -0.947
 6  98.6     98.2 -0.401
 7  98.2     98.1 -0.147
 8  99.3     98   -1.28 
 9  98.8     97.7 -1.11 
10  99.0     98.2 -0.790
# … with 498 more rows
…
rf_resample <- rf_wf %>% 
  tune_grid(fold_bt_train,
            grid = 25,
            control = control_grid(save_pred = TRUE),
            metrics = metric_set(rmse))

i Creating pre-processing data to finalize unknown parameter: mtry

Check CV metrics

rf_resample %>%
  collect_metrics()

# A tibble: 25 × 8
    mtry min_n .metric .estimator  mean     n std_err .config              
   <int> <int> <chr>   <chr>      <dbl> <int>   <dbl> <chr>                
 1     8    38 rmse    standard    1.16    25  0.0160 Preprocessor1_Model01
 2    29    14 rmse    standard    1.20    25  0.0162 Preprocessor1_Model02
 3    24     2 rmse    standard    1.22    25  0.0158 Preprocessor1_Model03
 4    15    31 rmse    standard    1.17    25  0.0160 Preprocessor1_Model04
 5     7    32 rmse    standard    1.16    25  0.0164 Preprocessor1_Model05
 6    20     9 rmse    standard    1.20    25  0.0159 Preprocessor1_Model06
 7    13     7 rmse    standard    1.19    25  0.0163 Preprocessor1_Model07
 8     2    15 rmse    standard    1.17    25  0.0164 Preprocessor1_Model08
 9    23    28 rmse    standard    1.18    25  0.0161 Preprocessor1_Model09
10    23     4 rmse    standard    1.22    25  0.0158 Preprocessor1_Model10
# … with 15 more rows
…
Evaluate final fit

Calculating residuals

rf_residuals <- rf_final_fit %>%
  augment(train) %>% #use augment() to make predictions from train data
  select(c(.pred, BodyTemp)) %>%
  mutate(.resid = BodyTemp - .pred) #calculate residuals and make new row.

rf_residuals

# A tibble: 508 × 3
   .pred BodyTemp .resid
   <dbl>    <dbl>  <dbl>
 1  98.7     97.8 -0.854
 2  98.6     98.1 -0.513
 3  98.7     98.1 -0.643
 4  98.7     98.2 -0.535
 5  98.8     97.8 -1.02 
 6  98.5     98.2 -0.336
 7  98.3     98.1 -0.218
 8  99.1     98   -1.12 
 9  98.8     97.7 -1.07 
10  98.8     98.2 -0.644
# … with 498 more rows
…
