My Data Analysis Portfolio - Model Evaluation
…
This will run a logistic regression on the flu data, predicting nausea using all other variables that we kept.

Model fitting

set.seed(626)
nausea_fit <- nausea_log_wf %>% 
  fit(data = train_data)

nausea_fit %>% extract_fit_parsnip() %>% 
  tidy()

# A tibble: 38 × 5
   term                 estimate std.error statistic p.value
   <chr>                   <dbl>     <dbl>     <dbl>   <dbl>
 1 (Intercept)            0.386      9.31     0.0414  0.967 
 2 SwollenLymphNodesYes  -0.0795     0.230   -0.346   0.729 
 3 ChestCongestionYes     0.110      0.249    0.440   0.660 
 4 ChillsSweatsYes        0.743      0.369    2.02    0.0438
 5 NasalCongestionYes     0.344      0.300    1.14    0.252 
 6 CoughYNYes            -0.206      0.613   -0.336   0.737 
 7 SneezeYes              0.217      0.254    0.855   0.393 
 8 FatigueYes             0.157      0.423    0.371   0.711 
 9 SubjectiveFeverYes    -0.157      0.272   -0.579   0.563 
10 HeadacheYes            0.272      0.333    0.814   0.415 
# … with 28 more rows
…
ROC-AUC is ok

Model assessment on testing data: ROC curve

set.seed(626)
nausea_fit_test <- nausea_log_wf %>% 
  fit(data = test_data)

nausea_fit_test %>% extract_fit_parsnip() %>% 
  tidy()

# A tibble: 38 × 5
   term                 estimate std.error statistic p.value
   <chr>                   <dbl>     <dbl>     <dbl>   <dbl>
 1 (Intercept)           -10.6      18.7      -0.566 0.571  
 2 SwollenLymphNodesYes   -1.07      0.481    -2.22  0.0263 
 3 ChestCongestionYes      0.779     0.504     1.55  0.122  
 4 ChillsSweatsYes        -0.685     0.608    -1.13  0.260  
 5 NasalCongestionYes      0.592     0.573     1.03  0.301  
 6 CoughYNYes             -0.310     1.05     -0.294 0.769  
 7 SneezeYes               0.478     0.458     1.04  0.297  
 8 FatigueYes              0.223     1.08      0.208 0.835  
 9 SubjectiveFeverYes      1.72      0.556     3.10  0.00195
10 HeadacheYes             0.542     0.688     0.788 0.430  
# … with 28 more rows
…
bt_lin_wf_all <- workflow() %>% 
  add_model(lin_mod) %>% #model definition 
  add_recipe(recipe_bt_all) #model recipe

This will run a linear regression on the flu data, predicting body temperature using all other variables that we kept.

Multivariate Model Fitting

bt_fit_all <- bt_lin_wf_all %>% 
  fit(data = train_data)

bt_fit_all %>% extract_fit_parsnip() %>% 
  tidy()

# A tibble: 38 × 5
   term                 estimate std.error statistic   p.value
   <chr>                   <dbl>     <dbl>     <dbl>     <dbl>
 1 (Intercept)           97.9        0.354   277.    0        
 2 SwollenLymphNodesYes  -0.204      0.108    -1.89  0.0599   
 3 ChestCongestionYes     0.0863     0.114     0.759 0.448    
 4 ChillsSweatsYes        0.100      0.158     0.637 0.525    
 5 NasalCongestionYes    -0.376      0.134    -2.81  0.00517  
 6 CoughYNYes             0.459      0.291     1.58  0.115    
 7 SneezeYes             -0.470      0.117    -4.02  0.0000658
 8 FatigueYes             0.424      0.181     2.35  0.0191   
 9 SubjectiveFeverYes     0.488      0.125     3.89  0.000112 
10 HeadacheYes            0.0343     0.146     0.235 0.815    
# … with 28 more rows
…
Model assessment on testing data: RMSE and Rsq

set.seed(626)
bt_fit_test_all <- bt_lin_wf_all %>% 
  fit(data = test_data) #pull in test data

bt_fit_test_all %>% extract_fit_parsnip() %>% 
  tidy()

# A tibble: 38 × 5
   term                 estimate std.error statistic   p.value
   <chr>                   <dbl>     <dbl>     <dbl>     <dbl>
 1 (Intercept)           98.7        0.655   151.    6.80e-164
 2 SwollenLymphNodesYes  -0.0195     0.186    -0.105 9.17e-  1
 3 ChestCongestionYes     0.297      0.205     1.45  1.49e-  1
 4 ChillsSweatsYes        0.279      0.233     1.20  2.34e-  1
 5 NasalCongestionYes     0.0556     0.229     0.243 8.09e-  1
 6 CoughYNYes            -0.210      0.427    -0.491 6.24e-  1
 7 SneezeYes             -0.175      0.193    -0.906 3.66e-  1
 8 FatigueYes            -0.527      0.411    -1.28  2.02e-  1
 9 SubjectiveFeverYes     0.266      0.195     1.37  1.74e-  1
10 HeadacheYes            0.128      0.263     0.487 6.27e-  1
# … with 28 more rows
…
